<svg width="26" height="26" viewBox="0 0 26 26" fill="none" xmlns="http://www.w3.org/2000/svg">
<g id="arrow down">
<path id="Vector" d="M6.5 9.75L13 16.25L19.5 9.75" stroke="#005FC7" stroke-width="2" stroke-linecap="round" stroke-linejoin="round"/>
</g>
</svg>
