<svg width="37" height="37" viewBox="0 0 37 37" fill="none" xmlns="http://www.w3.org/2000/svg">
<g id="chat">
<path id="Vector" d="M18.6211 25.7063C18.5398 25.3108 18.499 24.9066 18.5 24.5V24.1471C18.5812 22.6758 19.2022 21.2861 20.2442 20.2441C21.2861 19.2022 22.6758 18.5812 24.1471 18.5H24.5C24.9076 18.499 25.3127 18.54 25.7092 18.6217M18.6211 25.7063C18.7261 26.2172 18.8986 26.7136 19.1353 27.1823C19.6334 28.1789 20.399 29.017 21.3465 29.603C22.294 30.189 23.386 30.4995 24.5 30.5C25.2669 30.502 26.0252 30.3549 26.7332 30.0685C27.0303 29.9484 27.3528 29.8936 27.6688 29.9471L28.5564 30.0416C29.4118 30.1327 30.1331 29.4113 30.0418 28.556L29.9471 27.6688C29.8936 27.3528 29.9484 27.0303 30.0685 26.7332C30.3549 26.0252 30.502 25.2669 30.5 24.5C30.4995 23.386 30.189 22.294 29.603 21.3465C29.017 20.399 28.1789 19.6334 27.1823 19.1353C26.7145 18.899 26.219 18.7268 25.7092 18.6217M18.6211 25.7063C17.8494 25.9001 17.0532 25.9997 16.25 26C15.0039 26.0032 13.7716 25.7642 12.6211 25.2988C12.1383 25.1036 11.6142 25.0145 11.1007 25.1015L8.98856 25.3265C7.9431 25.4378 7.06155 24.5561 7.17313 23.5107L7.39848 21.3993C7.48546 20.8858 7.39641 20.3617 7.20116 19.879C6.73585 18.7284 6.49678 17.4961 6.50003 16.25C6.50073 14.4397 7.00544 12.6653 7.95762 11.1256C8.9098 9.5859 10.2718 8.34171 11.8912 7.53238C13.2426 6.84981 14.736 6.49609 16.25 6.50003H16.8235C19.2144 6.63193 21.4726 7.64108 23.1658 9.33424C24.8589 11.0274 25.8681 13.2856 26 15.6765V16.25C26.0021 17.0524 25.9037 17.849 25.7092 18.6217" stroke="#133145" stroke-width="1.5" stroke-linecap="round" stroke-linejoin="round"/>
</g>
</svg>
