<svg width="37" height="37" viewBox="0 0 37 37" fill="none" xmlns="http://www.w3.org/2000/svg">
<g id="Icons/layout">
<path id="Vector" d="M6.66532 14H14M14 14H30.3347M14 14V30.5M6.5 26C6.5 28.4853 8.51471 30.5 11 30.5H26C28.4853 30.5 30.5 28.4853 30.5 26V11C30.5 8.51472 28.4853 6.5 26 6.5H11C8.51473 6.5 6.50001 8.51472 6.50001 11L6.5 26Z" stroke="#011E32" stroke-width="1.5"/>
</g>
</svg>
